[
  {"lat" : 45.7726858796,
    "lng" : 4.85971578945,
    "weight" : 0.5
  },
  {

    "lat" : 45.7723275385,
    "lng" : 4.85966743009,
    "weight" : 0.5
  },
  {

    "lat" : 45.7686305033,
    "lng" : 4.85974692212,
    "weight" : 0.5
  },
  {

    "lat" : 45.77061778,
    "lng" : 4.85213753434,
    "weight" : 3
  },
  {

    "lat" : 45.7735536366,
    "lng" : 4.85089939084,
    "weight" : 0.5
  },
  {

    "lat" : 45.7659269048,
    "lng" : 4.84641100398,
    "weight" : 2
  },
  {

    "lat" : 45.766495002,
    "lng" : 4.84636876177,
    "weight" : 1.5
  },
  {

    "lat" : 45.7705210829,
    "lng" : 4.85475698008,
    "weight" : 2
  },
  {

    "lat" : 45.7704976794,
    "lng" : 4.85443727065,
    "weight" : 3
  },
  {

    "lat" : 45.7704090048,
    "lng" : 4.85352371581,
    "weight" : 2
  },
  {

    "lat" : 45.77039274,
    "lng" : 4.85333224842,
    "weight" : 2
  },
  {

    "lat" : 45.77037106,
    "lng" : 4.85307695874,
    "weight" : 2
  },
  {

    "lat" : 45.7703602249,
    "lng" : 4.85294931396,
    "weight" : 1
  },
  {

    "lat" : 45.7703493845,
    "lng" : 4.85282166923,
    "weight" : 3
  },
  {

    "lat" : 45.7701699973,
    "lng" : 4.8509225929,
    "weight" : 3
  },
  {

    "lat" : 45.7702572895,
    "lng" : 4.85207307911,
    "weight" : 3
  },
  {

    "lat" : 45.7701602974,
    "lng" : 4.8507947613,
    "weight" : 2
  },
  {

    "lat" : 45.7701554474,
    "lng" : 4.850730845,
    "weight" : 3
  },
  {

    "lat" : 45.7701360471,
    "lng" : 4.850478247,
    "weight" : 3
  },
  {

    "lat" : 45.7702184944,
    "lng" : 4.85617,
    "weight" : 2
  },
  {

    "lat" : 45.7702087953,
    "lng" : 4.843391971,
    "weight" : 3
  },
  {

    "lat" : 45.7702039456,
    "lng" : 4.837000382,
    "weight" : 3
  },
  {

    "lat" : 45.7700879858,
    "lng" : 4.85025572547,
    "weight" : 1.5
  },
  {

    "lat" : 45.7700527743,
    "lng" : 4.849808472,
    "weight" : 2
  },
  {

    "lat" : 45.7700376831,
    "lng" : 4.84961685313,
    "weight" : 1.5
  },
  {

    "lat" : 45.7700276221,
    "lng" : 4.84948907878,
    "weight" : 2
  },
  {

    "lat" : 45.7700074998,
    "lng" : 4.84923353022,
    "weight" : 1.5
  },
  {

    "lat" : 45.7699924076,
    "lng" : 4.84904186891,
    "weight" : 1.5
  },
  {

    "lat" : 45.7698473161,
    "lng" : 4.8474337966,
    "weight" : 3
  },
  {

    "lat" : 45.7699294974,
    "lng" : 4.84852040209,
    "weight" : 2
  },
  {

    "lat" : 45.7699053275,
    "lng" : 4.84820081195,
    "weight" : 1.5
  },
  {

    "lat" : 45.7698811567,
    "lng" : 4.84788122205,
    "weight" : 3
  },
  {

    "lat" : 45.769796734,
    "lng" : 4.84712950695,
    "weight" : 2
  },
  {

    "lat" : 45.7697706652,
    "lng" : 4.84681022233,
    "weight" : 2
  },
  {

    "lat" : 45.76976543,
    "lng" : 4.84674636544,
    "weight" : 3
  },
  {

    "lat" : 45.7697498095,
    "lng" : 4.84655479483,
    "weight" : 3
  },
  {

    "lat" : 45.7697185249,
    "lng" : 4.84617165391,
    "weight" : 2
  },
  {

    "lat" : 45.7696757813,
    "lng" : 4.84589236058,
    "weight" : 1
  },
  {

    "lat" : 45.76962498,
    "lng" : 4.848891114,
    "weight" : 1.5
  },
  {

    "lat" : 45.7695849274,
    "lng" : 4.84486392363,
    "weight" : 2
  },
  {

    "lat" : 45.7695606606,
    "lng" : 4.84454435012,
    "weight" : 3
  },
  {

    "lat" : 45.7695461,
    "lng" : 4.84435260614,
    "weight" : 3
  },
  {

    "lat" : 45.7695363928,
    "lng" : 4.84422477687,
    "weight" : 3
  },
  {

    "lat" : 45.7695218318,
    "lng" : 4.84403303304,
    "weight" : 3
  },
  {

    "lat" : 45.76921242,
    "lng" : 4.84390520387,
    "weight" : 3
  },
  {

    "lat" : 45.7694677446,
    "lng" : 4.84358130756,
    "weight" : 1.5
  },
  {

    "lat" : 45.7694459426,
    "lng" : 4.84332604261,
    "weight" : 1.5
  },
  {

    "lat" : 45.769473195,
    "lng" : 4.843642382,
    "weight" : 1
  },
  {

    "lat" : 45.7719403,
    "lng" : 4.85669178929,
    "weight" : 0.5
  },
  {

    "lat" : 45.7720745413,
    "lng" : 4.85667159621,
    "weight" : 0.5
  },
  {

    "lat" : 45.7710925224,
    "lng" : 4.84458026827,
    "weight" : 3
  },
  {

    "lat" : 45.7649488625,
    "lng" : 4.84575807405,
    "weight" : 1.5
  },
  {

    "lat" : 45.7646801231,
    "lng" : 4.84579460783,
    "weight" : 1.5
  },
  {

    "lat" : 45.77052834,
    "lng" : 4.8446803459,
    "weight" : 2
  },
  {

    "lat" : 45.7707075552,
    "lng" : 4.84465427984,
    "weight" : 2
  },
  {

    "lat" : 45.7699617682,
    "lng" : 4.84478202018,
    "weight" : 3
  },
  {

    "lat" : 45.7697381189,
    "lng" : 4.84481667938,
    "weight" : 3
  },
  {

    "lat" : 45.769406174,
    "lng" : 4.84489375765,
    "weight" : 1.5
  },
  {

    "lat" : 45.7692721089,
    "lng" : 4.84491613305,
    "weight" : 2
  },
  {

    "lat" : 45.7690933555,
    "lng" : 4.84494596676,
    "weight" : 3
  },
  {

    "lat" : 45.7689590472,
    "lng" : 4.84498977264,
    "weight" : 3
  },
  {

    "lat" : 45.7682947479,
    "lng" : 4.840052748,
    "weight" : 2
  },
  {

    "lat" : 45.7679353919,
    "lng" : 4.847612246,
    "weight" : 2
  },
  {

    "lat" : 45.7677117355,
    "lng" : 4.84521068816,
    "weight" : 2
  },
  {

    "lat" : 45.7675775416,
    "lng" : 4.84523142745,
    "weight" : 2
  },
  {

    "lat" : 45.7675328104,
    "lng" : 4.84523834053,
    "weight" : 2
  },
  {

    "lat" : 45.7670394133,
    "lng" : 4.84533399155,
    "weight" : 1.5
  },
  {

    "lat" : 45.7668139619,
    "lng" : 4.84538274166,
    "weight" : 3
  },
  {

    "lat" : 45.7668741339,
    "lng" : 4.845600192,
    "weight" : 3
  },
  {

    "lat" : 45.7671425222,
    "lng" : 4.84555872275,
    "weight" : 3
  },
  {

    "lat" : 45.767231985,
    "lng" : 4.84554489959,
    "weight" : 1.5
  },
  {

    "lat" : 45.7674616,
    "lng" : 4.84549245085,
    "weight" : 1.5
  },
  {

    "lat" : 45.7675063314,
    "lng" : 4.845485539,
    "weight" : 2
  },
  {

    "lat" : 45.7676405255,
    "lng" : 4.84546480338,
    "weight" : 3
  },
  {

    "lat" : 45.7636107319,
    "lng" : 4.84624434127,
    "weight" : 0.5
  },
  {

    "lat" : 45.7654171604,
    "lng" : 4.84592797352,
    "weight" : 2
  },
  {

    "lat" : 45.7705850883,
    "lng" : 4.85858640801,
    "weight" : 0.5
  },
  {

    "lat" : 45.7731335388,
    "lng" : 4.85978010553,
    "weight" : 0.5
  },
  {

    "lat" : 45.7701427277,
    "lng" : 4.8426411063,
    "weight" : 1
  },
  {

    "lat" : 45.7705973324,
    "lng" : 4.84311041698,
    "weight" : 2
  },
  {

    "lat" : 45.7689683406,
    "lng" : 4.85829662967,
    "weight" : 1
  },
  {

    "lat" : 45.7692894364,
    "lng" : 4.85525300239,
    "weight" : 1.5
  },
  {

    "lat" : 45.7695579255,
    "lng" : 4.85521289653,
    "weight" : 3
  },
  {

    "lat" : 45.769962424,
    "lng" : 4.852639261,
    "weight" : 3
  },
  {

    "lat" : 45.77009205,
    "lng" : 4.8513026,
    "weight" : 2
  },
  {

    "lat" : 45.7700966687,
    "lng" : 4.850634142,
    "weight" : 3
  },
  {

    "lat" : 45.7711215303,
    "lng" : 4.85492583545,
    "weight" : 3
  },
  {

    "lat" : 45.7682376684,
    "lng" : 4.85918852017,
    "weight" : 2
  },
  {

    "lat" : 45.7682376684,
    "lng" : 4.85918852017,
    "weight" : 0.5
  },
  {

    "lat" : 45.7676327768,
    "lng" : 4.8565798769,
    "weight" : 0.5
  },
  {

    "lat" : 45.7712945749,
    "lng" : 4.84200173456,
    "weight" : 2
  },
  {

    "lat" : 45.7674612538,
    "lng" : 4.894374292,
    "weight" : 3
  },
  {

    "lat" : 45.7674664205,
    "lng" : 4.85200760491,
    "weight" : 3
  },
  {

    "lat" : 45.7675584861,
    "lng" : 4.8529950666,
    "weight" : 2
  },
  {

    "lat" : 45.7675627227,
    "lng" : 4.85305906834,
    "weight" : 3
  },
  {

    "lat" : 45.7668914525,
    "lng" : 4.8458561455,
    "weight" : 2
  },
  {

    "lat" : 45.7669580563,
    "lng" : 4.84660536185,
    "weight" : 2
  },
  {

    "lat" : 45.7669685861,
    "lng" : 4.84673305213,
    "weight" : 3
  },
  {

    "lat" : 45.7669738,
    "lng" : 4.84679689729,
    "weight" : 3
  },
  {

    "lat" : 45.7671647417,
    "lng" : 4.84892378552,
    "weight" : 1.5
  },
  {

    "lat" : 45.7671697916,
    "lng" : 4.8489876663,
    "weight" : 2
  },
  {

    "lat" : 45.7670839383,
    "lng" : 4.84790169444,
    "weight" : 3
  },
  {

    "lat" : 45.76710414,
    "lng" : 4.84815721696,
    "weight" : 3
  },
  {

    "lat" : 45.7671243412,
    "lng" : 4.84841273965,
    "weight" : 1.5
  },
  {

    "lat" : 45.7671495918,
    "lng" : 4.84873214324,
    "weight" : 1
  },
  {

    "lat" : 45.767246353,
    "lng" : 4.8496203394,
    "weight" : 1.5
  },
  {

    "lat" : 45.7672701908,
    "lng" : 4.849939965,
    "weight" : 2
  },
  {

    "lat" : 45.767284493,
    "lng" : 4.85013174072,
    "weight" : 1.5
  },
  {

    "lat" : 45.7672892604,
    "lng" : 4.85019566593,
    "weight" : 1.5
  },
  {

    "lat" : 45.7673035622,
    "lng" : 4.85038744161,
    "weight" : 3
  },
  {

    "lat" : 45.7673783132,
    "lng" : 4.803813819,
    "weight" : 2
  },
  {

    "lat" : 45.7673831346,
    "lng" : 4.810205522,
    "weight" : 2
  },
  {

    "lat" : 45.7673879559,
    "lng" : 4.816597225,
    "weight" : 2
  },
  {

    "lat" : 45.7674024197,
    "lng" : 4.835772342,
    "weight" : 3
  },
  {

    "lat" : 45.7674072409,
    "lng" : 4.842164049,
    "weight" : 3
  },
  {

    "lat" : 45.7674120621,
    "lng" : 4.848555758,
    "weight" : 2
  },
  {

    "lat" : 45.7674168832,
    "lng" : 4.854947468,
    "weight" : 2
  },
  {

    "lat" : 45.7711841796,
    "lng" : 4.85865884341,
    "weight" : 1.5
  },
  {

    "lat" : 45.7723133357,
    "lng" : 4.85318479365,
    "weight" : 0.5
  },
  {

    "lat" : 45.762420522,
    "lng" : 4.85758422044,
    "weight" : 0.5
  },
  {

    "lat" : 45.767644736,
    "lng" : 4.85407344308,
    "weight" : 1.5
  },
  {

    "lat" : 45.7679263904,
    "lng" : 4.85703228707,
    "weight" : 0.5
  },
  {

    "lat" : 45.7680103335,
    "lng" : 4.85264282289,
    "weight" : 2
  },
  {

    "lat" : 45.7679025599,
    "lng" : 4.817224314,
    "weight" : 3
  },
  {

    "lat" : 45.7679681635,
    "lng" : 4.85206737804,
    "weight" : 3
  },
  {

    "lat" : 45.7679634777,
    "lng" : 4.85200343977,
    "weight" : 3
  },
  {

    "lat" : 45.7679400485,
    "lng" : 4.868374857,
    "weight" : 3
  },
  {

    "lat" : 45.767847732,
    "lng" : 4.85082468072,
    "weight" : 1.5
  },
  {

    "lat" : 45.76761021,
    "lng" : 4.84792570048,
    "weight" : 1.5
  },
  {

    "lat" : 45.76760552,
    "lng" : 4.84786176242,
    "weight" : 1
  },
  {

    "lat" : 45.7676008401,
    "lng" : 4.84779782437,
    "weight" : 1
  },
  {

    "lat" : 45.767694532,
    "lng" : 4.84907658718,
    "weight" : 1.5
  },
  {

    "lat" : 45.7676476879,
    "lng" : 4.84843720529,
    "weight" : 1
  },
  {

    "lat" : 45.7676289492,
    "lng" : 4.84818145281,
    "weight" : 1
  },
  {

    "lat" : 45.7676242645,
    "lng" : 4.848117471,
    "weight" : 1.5
  },
  {

    "lat" : 45.7675407278,
    "lng" : 4.84735598655,
    "weight" : 2
  },
  {

    "lat" : 45.7674797767,
    "lng" : 4.8465248001,
    "weight" : 1.5
  },
  {

    "lat" : 45.7674257884,
    "lng" : 4.846059554,
    "weight" : 2
  },
  {

    "lat" : 45.7724769442,
    "lng" : 4.854547786,
    "weight" : 0.5
  },
  {

    "lat" : 45.7730856537,
    "lng" : 4.84203760776,
    "weight" : 0.5
  },
  {

    "lat" : 45.772843491,
    "lng" : 4.84530968666,
    "weight" : 1
  },
  {

    "lat" : 45.7715264131,
    "lng" : 4.8444591477,
    "weight" : 3
  },
  {

    "lat" : 45.7675547926,
    "lng" : 4.84754779904,
    "weight" : 2
  },
  {

    "lat" : 45.7674654103,
    "lng" : 4.84756264676,
    "weight" : 2
  },
  {

    "lat" : 45.7674291,
    "lng" : 4.8475700706,
    "weight" : 2
  },
  {

    "lat" : 45.7671972634,
    "lng" : 4.84768965,
    "weight" : 1.5
  },
  {

    "lat" : 45.76701014,
    "lng" : 4.8475552229,
    "weight" : 3
  },
  {

    "lat" : 45.7665716393,
    "lng" : 4.847721268,
    "weight" : 1.5
  },
  {

    "lat" : 45.7659579604,
    "lng" : 4.84784344672,
    "weight" : 1.5
  },
  {

    "lat" : 45.7649372628,
    "lng" : 4.84804108013,
    "weight" : 1
  },
  {

    "lat" : 45.7709156832,
    "lng" : 4.84693076283,
    "weight" : 2
  },
  {

    "lat" : 45.7701433607,
    "lng" : 4.84705711975,
    "weight" : 2
  },
  {

    "lat" : 45.7704568103,
    "lng" : 4.84701331716,
    "weight" : 3
  },
  {

    "lat" : 45.7697520239,
    "lng" : 4.84713669441,
    "weight" : 2
  },
  {

    "lat" : 45.7690265885,
    "lng" : 4.84728747902,
    "weight" : 2
  },
  {

    "lat" : 45.7686399053,
    "lng" : 4.84735366344,
    "weight" : 3
  },
  {

    "lat" : 45.76859657,
    "lng" : 4.84736046575,
    "weight" : 3
  },
  {

    "lat" : 45.7685056866,
    "lng" : 4.84737407034,
    "weight" : 2
  },
  {

    "lat" : 45.7684162075,
    "lng" : 4.84738767488,
    "weight" : 1.5
  },
  {

    "lat" : 45.7679202395,
    "lng" : 4.84747746594,
    "weight" : 3
  },
  {

    "lat" : 45.7733850784,
    "lng" : 4.84821329953,
    "weight" : 1
  },
  {

    "lat" : 45.7637886542,
    "lng" : 4.84702642595,
    "weight" : 3
  },
  {

    "lat" : 45.7682520329,
    "lng" : 4.84616804844,
    "weight" : 3
  },
  {

    "lat" : 45.7684313789,
    "lng" : 4.84614667703,
    "weight" : 3
  },
  {

    "lat" : 45.7692372766,
    "lng" : 4.84599536717,
    "weight" : 3
  },
  {

    "lat" : 45.7693265039,
    "lng" : 4.84597872416,
    "weight" : 1.5
  },
  {

    "lat" : 45.7699440682,
    "lng" : 4.84584957233,
    "weight" : 3
  },
  {

    "lat" : 45.7699887827,
    "lng" : 4.84584244092,
    "weight" : 2
  },
  {

    "lat" : 45.7700334972,
    "lng" : 4.84583530949,
    "weight" : 2
  },
  {

    "lat" : 45.7702123552,
    "lng" : 4.84580678371,
    "weight" : 3
  },
  {

    "lat" : 45.7704621999,
    "lng" : 4.8457436109,
    "weight" : 3
  },
  {

    "lat" : 45.7705069318,
    "lng" : 4.845736707,
    "weight" : 3
  },
  {

    "lat" : 45.7708478962,
    "lng" : 4.84566788868,
    "weight" : 1.5
  },
  {

    "lat" : 45.7718164308,
    "lng" : 4.84547566318,
    "weight" : 2
  },
  {

    "lat" : 45.7662521703,
    "lng" : 4.84654573138,
    "weight" : 2
  },
  {

    "lat" : 45.7678022484,
    "lng" : 4.84625776767,
    "weight" : 3
  },
  {

    "lat" : 45.7678916679,
    "lng" : 4.84624338455,
    "weight" : 2
  },
  {

    "lat" : 45.7687989406,
    "lng" : 4.85248790045,
    "weight" : 1.5
  },
  {

    "lat" : 45.7688884862,
    "lng" : 4.85247522208,
    "weight" : 3
  },
  {

    "lat" : 45.7689780318,
    "lng" : 4.85246254367,
    "weight" : 2
  },
  {

    "lat" : 45.7692018959,
    "lng" : 4.8524308475,
    "weight" : 3
  },
  {

    "lat" : 45.7692466687,
    "lng" : 4.85242450824,
    "weight" : 2
  },
  {

    "lat" : 45.7692914415,
    "lng" : 4.85241816897,
    "weight" : 2
  },
  {

    "lat" : 45.769569313,
    "lng" : 4.85234962663,
    "weight" : 2
  },
  {

    "lat" : 45.7700159206,
    "lng" : 4.852271711,
    "weight" : 3
  },
  {

    "lat" : 45.7701052421,
    "lng" : 4.85225617586,
    "weight" : 2
  },
  {

    "lat" : 45.7702669879,
    "lng" : 4.85220091111,
    "weight" : 3
  },
  {

    "lat" : 45.7704012587,
    "lng" : 4.85218121746,
    "weight" : 2
  },
  {

    "lat" : 45.7646509324,
    "lng" : 4.85328848523,
    "weight" : 0.5
  },
  {

    "lat" : 45.7653448997,
    "lng" : 4.8531654897,
    "weight" : 1.5
  },
  {

    "lat" : 45.7667997528,
    "lng" : 4.85287949752,
    "weight" : 3
  },
  {

    "lat" : 45.7669339407,
    "lng" : 4.85285868383,
    "weight" : 3
  },
  {

    "lat" : 45.7671575872,
    "lng" : 4.85282399414,
    "weight" : 1.5
  },
  {

    "lat" : 45.7673812336,
    "lng" : 4.8527893042,
    "weight" : 2
  },
  {

    "lat" : 45.7677202336,
    "lng" : 4.852708576,
    "weight" : 2
  },
  {

    "lat" : 45.7678095807,
    "lng" : 4.8526932437,
    "weight" : 2
  },
  {

    "lat" : 45.7680103335,
    "lng" : 4.85264282289,
    "weight" : 3
  },
  {

    "lat" : 45.7684124547,
    "lng" : 4.85257480839,
    "weight" : 3
  },
  {

    "lat" : 45.768501815,
    "lng" : 4.85255969394,
    "weight" : 3
  },
  {

    "lat" : 45.765058036,
    "lng" : 4.85257319678,
    "weight" : 2
  },
  {

    "lat" : 45.76841128,
    "lng" : 4.85396376317,
    "weight" : 1.5
  },
  {

    "lat" : 45.7653104375,
    "lng" : 4.8594936,
    "weight" : 2
  },
  {

    "lat" : 45.7671252242,
    "lng" : 4.856987087,
    "weight" : 0.5
  },
  {

    "lat" : 45.7665783471,
    "lng" : 4.85047657402,
    "weight" : 2
  },
  {

    "lat" : 45.7665625052,
    "lng" : 4.85028504809,
    "weight" : 2
  },
  {

    "lat" : 45.7663813075,
    "lng" : 4.84843657478,
    "weight" : 2
  },
  {

    "lat" : 45.7662423653,
    "lng" : 4.84676298086,
    "weight" : 0.5
  },
  {

    "lat" : 45.7669612555,
    "lng" : 4.85465243373,
    "weight" : 0.5
  },
  {

    "lat" : 45.76691641,
    "lng" : 4.85452467149,
    "weight" : 1.5
  },
  {

    "lat" : 45.766930981,
    "lng" : 4.85426914712,
    "weight" : 2
  },
  {

    "lat" : 45.7668805207,
    "lng" : 4.85363033693,
    "weight" : 3
  },
  {

    "lat" : 45.7668338019,
    "lng" : 4.85325492048,
    "weight" : 2
  },
  {

    "lat" : 45.7668422884,
    "lng" : 4.85338292049,
    "weight" : 3
  },
  {

    "lat" : 45.76674327,
    "lng" : 4.85217666593,
    "weight" : 2
  },
  {

    "lat" : 45.7666776123,
    "lng" : 4.8501624,
    "weight" : 3
  },
  {

    "lat" : 45.76666303,
    "lng" : 4.831338258,
    "weight" : 1
  },
  {

    "lat" : 45.7666291259,
    "lng" : 4.804582435,
    "weight" : 1
  },
  {

    "lat" : 45.7643370991,
    "lng" : 4.84287802381,
    "weight" : 0.5
  },
  {

    "lat" : 45.7653115347,
    "lng" : 4.84269202957,
    "weight" : 0.5
  },
  {

    "lat" : 45.7667660136,
    "lng" : 4.84240205031,
    "weight" : 0.5
  },
  {

    "lat" : 45.7700788469,
    "lng" : 4.85964420923,
    "weight" : 3
  },
  {

    "lat" : 45.7700788469,
    "lng" : 4.85964420923,
    "weight" : 2
  },
  {

    "lat" : 45.7733695958,
    "lng" : 4.84373589053,
    "weight" : 0.5
  },
  {

    "lat" : 45.76877589,
    "lng" : 4.85322824486,
    "weight" : 3
  },
  {

    "lat" : 45.7687860606,
    "lng" : 4.85335599932,
    "weight" : 3
  },
  {

    "lat" : 45.7688013085,
    "lng" : 4.8535476311,
    "weight" : 2
  },
  {

    "lat" : 45.7688165561,
    "lng" : 4.85373926297,
    "weight" : 3
  },
  {

    "lat" : 45.7687708124,
    "lng" : 4.85316436764,
    "weight" : 3
  },
  {

    "lat" : 45.7688318034,
    "lng" : 4.85393089493,
    "weight" : 2
  },
  {

    "lat" : 45.76892094,
    "lng" : 4.85480857718,
    "weight" : 2
  },
  {

    "lat" : 45.7689310999,
    "lng" : 4.85493633364,
    "weight" : 3
  },
  {

    "lat" : 45.7690995493,
    "lng" : 4.85654771189,
    "weight" : 2
  },
  {

    "lat" : 45.7679282279,
    "lng" : 4.84405614862,
    "weight" : 2
  },
  {

    "lat" : 45.7679419,
    "lng" : 4.84424801953,
    "weight" : 2
  },
  {

    "lat" : 45.7679692645,
    "lng" : 4.84463176162,
    "weight" : 1.5
  },
  {

    "lat" : 45.7679783834,
    "lng" : 4.84475967572,
    "weight" : 3
  },
  {

    "lat" : 45.7679875021,
    "lng" : 4.84488758986,
    "weight" : 2
  },
  {

    "lat" : 45.7680733186,
    "lng" : 4.845762982,
    "weight" : 2
  },
  {

    "lat" : 45.768087558,
    "lng" : 4.84595477062,
    "weight" : 3
  },
  {

    "lat" : 45.7681420637,
    "lng" : 4.84650359938,
    "weight" : 3
  },
  {

    "lat" : 45.7681567876,
    "lng" : 4.84669531298,
    "weight" : 3
  },
  {

    "lat" : 45.7682338996,
    "lng" : 4.84743685735,
    "weight" : 1.5
  },
  {

    "lat" : 45.7682629473,
    "lng" : 4.84782034739,
    "weight" : 2
  },
  {

    "lat" : 45.7682726296,
    "lng" : 4.84794817748,
    "weight" : 1.5
  },
  {

    "lat" : 45.76830664,
    "lng" : 4.84839558312,
    "weight" : 2
  },
  {

    "lat" : 45.7683893223,
    "lng" : 4.84912911172,
    "weight" : 2
  },
  {

    "lat" : 45.7684103038,
    "lng" : 4.84938418,
    "weight" : 1
  },
  {

    "lat" : 45.768415549,
    "lng" : 4.84944836185,
    "weight" : 1.5
  },
  {

    "lat" : 45.7684260394,
    "lng" : 4.84957606198,
    "weight" : 1
  },
  {

    "lat" : 45.7684417748,
    "lng" : 4.84976761225,
    "weight" : 1.5
  },
  {

    "lat" : 45.7683945678,
    "lng" : 4.84919296173,
    "weight" : 0.5
  },
  {

    "lat" : 45.7684575099,
    "lng" : 4.84995916262,
    "weight" : 1.5
  },
  {

    "lat" : 45.7684732446,
    "lng" : 4.85015309,
    "weight" : 1
  },
  {

    "lat" : 45.7684784894,
    "lng" : 4.85021456327,
    "weight" : 0.5
  },
  {

    "lat" : 45.7686408155,
    "lng" : 4.898035952,
    "weight" : 3
  },
  {

    "lat" : 45.7686553978,
    "lng" : 4.85217209661,
    "weight" : 3
  },
  {

    "lat" : 45.76866192,
    "lng" : 4.8522999214,
    "weight" : 3
  },
  {

    "lat" : 45.7685630379,
    "lng" : 4.85095776318,
    "weight" : 2
  },
  {

    "lat" : 45.7685678993,
    "lng" : 4.802167538,
    "weight" : 2
  },
  {

    "lat" : 45.7685727606,
    "lng" : 4.808558758,
    "weight" : 3
  },
  {

    "lat" : 45.7685776219,
    "lng" : 4.81494998,
    "weight" : 2
  },
  {

    "lat" : 45.7685970668,
    "lng" : 4.8404876,
    "weight" : 1.5
  },
  {

    "lat" : 45.768606789,
    "lng" : 4.85329733,
    "weight" : 2
  },
  {

    "lat" : 45.7686359547,
    "lng" : 4.891644717,
    "weight" : 1.5
  },
  {

    "lat" : 45.7687342352,
    "lng" : 4.85282005676,
    "weight" : 2
  },
  {

    "lat" : 45.77020940,
    "lng" : 4.85705093353,
    "weight" : 0.5
  },
  {

    "lat" : 45.7707072449,
    "lng" : 4.85658224733,
    "weight" : 1
  },
  {

    "lat" : 45.7721737438,
    "lng" : 4.85377546497,
    "weight" : 0.5
  },
  {

    "lat" : 45.7647563666,
    "lng" : 4.85502977561,
    "weight" : 3
  },
  {

    "lat" : 45.7644053236,
    "lng" : 4.851309567,
    "weight" : 2
  },
  {

    "lat" : 45.770273096,
    "lng" : 4.85405698621,
    "weight" : 3
  },
  {

    "lat" : 45.7700938297,
    "lng" : 4.8540796763,
    "weight" : 3
  },
  {

    "lat" : 45.7698697469,
    "lng" : 4.85410803874,
    "weight" : 2
  },
  {

    "lat" : 45.7695581092,
    "lng" : 4.85417609475,
    "weight" : 1
  },
  {

    "lat" : 45.7693342298,
    "lng" : 4.85420756719,
    "weight" : 3
  },
  {

    "lat" : 45.769244678,
    "lng" : 4.8542201561,
    "weight" : 2
  },
  {

    "lat" : 45.7690655745,
    "lng" : 4.85424533381,
    "weight" : 2
  },
  {

    "lat" : 45.7685674397,
    "lng" : 4.85434893655,
    "weight" : 3
  },
  {

    "lat" : 45.7688356265,
    "lng" : 4.859247,
    "weight" : 2
  },
  {

    "lat" : 45.768299253,
    "lng" : 4.85439298025,
    "weight" : 2
  },
  {

    "lat" : 45.7679916987,
    "lng" : 4.8544616149,
    "weight" : 3
  },
  {

    "lat" : 45.767902082,
    "lng" : 4.85447322109,
    "weight" : 2
  },
  {

    "lat" : 45.7676073763,
    "lng" : 4.85452947381,
    "weight" : 1.5
  },
  {

    "lat" : 45.7672047007,
    "lng" : 4.85459042179,
    "weight" : 2
  },
  {

    "lat" : 45.767652118,
    "lng" : 4.85452270176,
    "weight" : 1.5
  },
  {

    "lat" : 45.7708379792,
    "lng" : 4.84554008937,
    "weight" : 3
  },
  {

    "lat" : 45.7708231034,
    "lng" : 4.84534839048,
    "weight" : 1.5
  },
  {

    "lat" : 45.7708082273,
    "lng" : 4.845669168,
    "weight" : 1.5
  },
  {

    "lat" : 45.7708032685,
    "lng" : 4.8450927921,
    "weight" : 2
  },
  {

    "lat" : 45.7707422214,
    "lng" : 4.84499925,
    "weight" : 3
  },
  {

    "lat" : 45.7706816531,
    "lng" : 4.8437533686,
    "weight" : 3
  },
  {

    "lat" : 45.7714176592,
    "lng" : 4.871745356,
    "weight" : 3
  },
  {

    "lat" : 45.7712469019,
    "lng" : 4.84992166323,
    "weight" : 2
  },
  {

    "lat" : 45.771025085,
    "lng" : 4.84740956298,
    "weight" : 3
  },
  {

    "lat" : 45.7709047917,
    "lng" : 4.834225418,
    "weight" : 0.5
  },
  {

    "lat" : 45.7711149348,
    "lng" : 4.85360291399,
    "weight" : 1.5
  },
  {

    "lat" : 45.7712129165,
    "lng" : 4.85455844621,
    "weight" : 1.5
  },
  {

    "lat" : 45.7713359,
    "lng" : 4.85601157327,
    "weight" : 1
  },
  {

    "lat" : 45.764837302,
    "lng" : 4.85431073968,
    "weight" : 1.5
  },
  {

    "lat" : 45.7657142129,
    "lng" : 4.855819902,
    "weight" : 2
  },
  {

    "lat" : 45.769521197,
    "lng" : 4.85913115945,
    "weight" : 0.5
  },
  {

    "lat" : 45.7697891076,
    "lng" : 4.8591785059,
    "weight" : 0.5
  },
  {

    "lat" : 45.77561681,
    "lng" : 4.84604761142,
    "weight" : 2
  },
  {

    "lat" : 45.7733067594,
    "lng" : 4.84647317604,
    "weight" : 1
  },
  {

    "lat" : 45.7691595707,
    "lng" : 4.84886352281,
    "weight" : 3
  },
  {

    "lat" : 45.7690909999,
    "lng" : 4.84783957179,
    "weight" : 3
  },
  {

    "lat" : 45.7690695696,
    "lng" : 4.847958755,
    "weight" : 2
  },
  {

    "lat" : 45.7691038576,
    "lng" : 4.84803156244,
    "weight" : 1.5
  },
  {

    "lat" : 45.7689806405,
    "lng" : 4.84677737368,
    "weight" : 2
  },
  {

    "lat" : 45.7689748969,
    "lng" : 4.84671361056,
    "weight" : 2
  },
  {

    "lat" : 45.7689576657,
    "lng" : 4.84652232129,
    "weight" : 1.5
  },
  {

    "lat" : 45.7689921277,
    "lng" : 4.84690489994,
    "weight" : 3
  },
  {

    "lat" : 45.7689634094,
    "lng" : 4.84658608437,
    "weight" : 3
  },
  {

    "lat" : 45.76899219,
    "lng" : 4.84645855823,
    "weight" : 2
  },
  {

    "lat" : 45.7689806405,
    "lng" : 4.84677737368,
    "weight" : 1.5
  },
  {

    "lat" : 45.7688607724,
    "lng" : 4.84561736942,
    "weight" : 1.5
  },
  {

    "lat" : 45.7688812903,
    "lng" : 4.84587284877,
    "weight" : 3
  },
  {

    "lat" : 45.76878688,
    "lng" : 4.84488909265,
    "weight" : 3
  },
  {

    "lat" : 45.7687472262,
    "lng" : 4.84431327341,
    "weight" : 3
  },
  {

    "lat" : 45.7687428201,
    "lng" : 4.84424929354,
    "weight" : 1.5
  },
  {

    "lat" : 45.7687736624,
    "lng" : 4.84469715282,
    "weight" : 3
  },
  {

    "lat" : 45.7687384139,
    "lng" : 4.84418531368,
    "weight" : 3
  },
  {

    "lat" : 45.7686444472,
    "lng" : 4.84317260111,
    "weight" : 2
  },
  {

    "lat" : 45.7686493827,
    "lng" : 4.84323650195,
    "weight" : 2
  },
  {

    "lat" : 45.774639724,
    "lng" : 4.84380435212,
    "weight" : 2
  },
  {

    "lat" : 45.7676789035,
    "lng" : 4.84139376374,
    "weight" : 1
  },
  {

    "lat" : 45.7677744684,
    "lng" : 4.84239599034,
    "weight" : 0.5
  },
  {

    "lat" : 45.7686274481,
    "lng" : 4.84311152252,
    "weight" : 1
  },
  {

    "lat" : 45.7680162138,
    "lng" : 4.84299839258,
    "weight" : 1
  },
  {

    "lat" : 45.7693611236,
    "lng" : 4.8425079855,
    "weight" : 1
  },
  {

    "lat" : 45.7685015544,
    "lng" : 4.8584749226,
    "weight" : 1
  },
  {

    "lat" : 45.7684660896,
    "lng" : 4.857368273,
    "weight" : 1
  },
  {

    "lat" : 45.768390903,
    "lng" : 4.85666593997,
    "weight" : 1
  },
  {

    "lat" : 45.7681615659,
    "lng" : 4.85431052474,
    "weight" : 2
  },
  {

    "lat" : 45.76814763,
    "lng" : 4.85411870828,
    "weight" : 1.5
  },
  {

    "lat" : 45.7681334663,
    "lng" : 4.85392689189,
    "weight" : 2
  },
  {

    "lat" : 45.7667365034,
    "lng" : 4.843963411,
    "weight" : 0.5
  },
  {

    "lat" : 45.7654259704,
    "lng" : 4.84350271404,
    "weight" : 0.5
  },
  {

    "lat" : 45.7647973572,
    "lng" : 4.84363638074,
    "weight" : 0.5
  },
  {

    "lat" : 45.7674060524,
    "lng" : 4.84933501587,
    "weight" : 1
  },
  {

    "lat" : 45.7677979362,
    "lng" : 4.84925318291,
    "weight" : 1.5
  },
  {

    "lat" : 45.7678426121,
    "lng" : 4.84924557338,
    "weight" : 2
  },
  {

    "lat" : 45.7679766395,
    "lng" : 4.84922274473,
    "weight" : 1
  },
  {

    "lat" : 45.7680213153,
    "lng" : 4.8492135,
    "weight" : 2
  },
  {

    "lat" : 45.7681553428,
    "lng" : 4.84919230637,
    "weight" : 2
  },
  {

    "lat" : 45.7682000186,
    "lng" : 4.84918469675,
    "weight" : 1.5
  },
  {

    "lat" : 45.7682446944,
    "lng" : 4.84917708712,
    "weight" : 1.5
  },
  {

    "lat" : 45.7683893223,
    "lng" : 4.84912911172,
    "weight" : 1
  },
  {

    "lat" : 45.7684788616,
    "lng" : 4.84911634067,
    "weight" : 2
  },
  {

    "lat" : 45.7689265578,
    "lng" : 4.84905248486,
    "weight" : 2
  },
  {

    "lat" : 45.7701773427,
    "lng" : 4.84880569488,
    "weight" : 3
  },
  {

    "lat" : 45.7704010191,
    "lng" : 4.84877139702,
    "weight" : 1.5
  },
  {

    "lat" : 45.7716504399,
    "lng" : 4.846352202,
    "weight" : 1.5
  },
  {

    "lat" : 45.771883567,
    "lng" : 4.84883447084,
    "weight" : 1.5
  },
  {

    "lat" : 45.7719261555,
    "lng" : 4.84927003732,
    "weight" : 0.5
  },
  {

    "lat" : 45.7743010824,
    "lng" : 4.84709281612,
    "weight" : 2
  },
  {

    "lat" : 45.76331077,
    "lng" : 4.8563243967,
    "weight" : 2
  },
  {

    "lat" : 45.7656487599,
    "lng" : 4.85591693791,
    "weight" : 2
  },
  {

    "lat" : 45.7686050823,
    "lng" : 4.85698297047,
    "weight" : 1.5
  },
  {

    "lat" : 45.7731650083,
    "lng" : 4.85079496426,
    "weight" : 0.5
  },
  {

    "lat" : 45.7716732221,
    "lng" : 4.85087985656,
    "weight" : 3
  },
  {

    "lat" : 45.771628458,
    "lng" : 4.85088631946,
    "weight" : 1.5
  },
  {

    "lat" : 45.7717916807,
    "lng" : 4.84132624012,
    "weight" : 1.5
  },
  {

    "lat" : 45.7717480885,
    "lng" : 4.84134215342,
    "weight" : 1.5
  },
  {

    "lat" : 45.7724918385,
    "lng" : 4.85276398769,
    "weight" : 0.5
  },
  {

    "lat" : 45.771893074,
    "lng" : 4.84500596969,
    "weight" : 1
  },
  {

    "lat" : 45.7660846311,
    "lng" : 4.85695426258,
    "weight" : 1.5
  },
  {

    "lat" : 45.7658745868,
    "lng" : 4.84302596715,
    "weight" : 0.5
  },
  {

    "lat" : 45.7685868649,
    "lng" : 4.853128924,
    "weight" : 3
  },
  {

    "lat" : 45.7645740219,
    "lng" : 4.856663044,
    "weight" : 0.5
  },
  {

    "lat" : 45.7644812692,
    "lng" : 4.85445887767,
    "weight" : 3
  },
  {

    "lat" : 45.7718780391,
    "lng" : 4.84136237436,
    "weight" : 1.5
  },
  {

    "lat" : 45.7718348599,
    "lng" : 4.84134430722,
    "weight" : 1.5
  },
  {

    "lat" : 45.7708877644,
    "lng" : 4.84160496378,
    "weight" : 1.5
  },
  {

    "lat" : 45.7738095495,
    "lng" : 4.849666606,
    "weight" : 1
  },
  {

    "lat" : 45.7733150056,
    "lng" : 4.84969390704,
    "weight" : 1
  },
  {

    "lat" : 45.76979048,
    "lng" : 4.85557122341,
    "weight" : 3
  },
  {

    "lat" : 45.7696954283,
    "lng" : 4.854584323,
    "weight" : 3
  },
  {

    "lat" : 45.769729,
    "lng" : 4.85503196704,
    "weight" : 3
  },
  {

    "lat" : 45.7696858158,
    "lng" : 4.85445666937,
    "weight" : 2
  },
  {

    "lat" : 45.7695442369,
    "lng" : 4.85282153455,
    "weight" : 1.5
  },
  {

    "lat" : 45.7695393115,
    "lng" : 4.85275763127,
    "weight" : 2
  },
  {

    "lat" : 45.7695294607,
    "lng" : 4.85262982475,
    "weight" : 1.5
  },
  {

    "lat" : 45.7695245353,
    "lng" : 4.8525659215,
    "weight" : 2
  },
  {

    "lat" : 45.769632887,
    "lng" : 4.85397179528,
    "weight" : 3
  },
  {

    "lat" : 45.7696082631,
    "lng" : 4.85365227808,
    "weight" : 3
  },
  {

    "lat" : 45.7696033383,
    "lng" : 4.85358837467,
    "weight" : 2
  },
  {

    "lat" : 45.7696378117,
    "lng" : 4.85403569875,
    "weight" : 0.5
  },
  {

    "lat" : 45.769632887,
    "lng" : 4.85397179528,
    "weight" : 1.5
  },
  {

    "lat" : 45.7696279623,
    "lng" : 4.85390789182,
    "weight" : 1
  },
  {

    "lat" : 45.769613188,
    "lng" : 4.8537161815,
    "weight" : 2
  },
  {

    "lat" : 45.7695934884,
    "lng" : 4.85346056788,
    "weight" : 1
  },
  {

    "lat" : 45.7695836384,
    "lng" : 4.85333276113,
    "weight" : 1.5
  },
  {

    "lat" : 45.7695737882,
    "lng" : 4.85320495443,
    "weight" : 1
  },
  {

    "lat" : 45.7695590127,
    "lng" : 4.85301324444,
    "weight" : 0.5
  },
  {

    "lat" : 45.7695540875,
    "lng" : 4.85294934114,
    "weight" : 1
  },
  {

    "lat" : 45.7693679333,
    "lng" : 4.85095992444,
    "weight" : 1.5
  },
  {

    "lat" : 45.7645541945,
    "lng" : 4.85907933531,
    "weight" : 3
  },
  {

    "lat" : 45.7659453763,
    "lng" : 4.859850539,
    "weight" : 0.5
  },
  {

    "lat" : 45.7703104203,
    "lng" : 4.848065648,
    "weight" : 2
  },
  {

    "lat" : 45.7704337892,
    "lng" : 4.84645921543,
    "weight" : 2
  },
  {

    "lat" : 45.7703782864,
    "lng" : 4.84582121833,
    "weight" : 3
  },
  {

    "lat" : 45.7704504394,
    "lng" : 4.84665061479,
    "weight" : 3
  },
  {

    "lat" : 45.7704559893,
    "lng" : 4.8467144146,
    "weight" : 3
  },
  {

    "lat" : 45.77059864,
    "lng" : 4.84835004565,
    "weight" : 1.5
  },
  {

    "lat" : 45.7706031316,
    "lng" : 4.84841399747,
    "weight" : 1.5
  },
  {

    "lat" : 45.7706077467,
    "lng" : 4.8484779493,
    "weight" : 1.5
  },
  {

    "lat" : 45.7705708244,
    "lng" : 4.84796633492,
    "weight" : 3
  },
  {

    "lat" : 45.7705754398,
    "lng" : 4.84803028669,
    "weight" : 3
  },
  {

    "lat" : 45.7705846705,
    "lng" : 4.84815819024,
    "weight" : 2
  },
  {

    "lat" : 45.7648718029,
    "lng" : 4.85223143606,
    "weight" : 0.5
  },
  {

    "lat" : 45.7668409675,
    "lng" : 4.88683884,
    "weight" : 1.5
  },
  {

    "lat" : 45.766930457,
    "lng" : 4.885492473,
    "weight" : 3
  },
  {

    "lat" : 45.7667478,
    "lng" : 4.888185202,
    "weight" : 2
  },
  {

    "lat" : 45.7672436701,
    "lng" : 4.88078016,
    "weight" : 1.5
  },
  {

    "lat" : 45.7664117198,
    "lng" : 4.84545234409,
    "weight" : 2
  }
]
